Final Project
…
 [1] "White Blend"        "Pinot Gris"         "Pinot Noir"        
 [4] "Cabernet Sauvignon" "Malbec"             "Red Blend"         
 [7] "Merlot"             "Sauvignon Blanc"    "Rosé"              
[10] "Zinfandel"          "Syrah"              "Shiraz"            
[13] "Moscato"            "Prosecco"           "Tempranillo"       

wine_ratings |> filter(variety == "Zinfandel")

# A tibble: 2,714 × 14
    ...1 country description designation points price province region_1 region_2
   <dbl> <chr>   <chr>       <chr>        <dbl> <dbl> <chr>    <chr>    <chr>   
 1    84 US      A healthy … Classic         86    24 Califor… Napa Va… Napa    
 2   108 US      Lots of sp… J.D. Hurley     87    26 Califor… Santa C… Central…
 3   122 US      Defines Ro… Rockpile C…     92    39 Califor… Rockpile Sonoma  
 4   207 US      Juicy and … Home Ranch…     90    32 Califor… Dry Cre… Sonoma  
 5   252 US      Shows the … Seity           85    35 Califor… Amador … Sierra …
 6   276 US      A huge, ki… Old Vines       89    20 Califor… Sonoma … Sonoma  
 7   305 US      Muted at f… <NA>            87    24 Califor… Mendoci… <NA>    
 8   329 US      With a fru… Reserve         86    34 Califor… Mendoci… <NA>    
 9   341 US      Plummy and… Serracino …     82    48 Califor… Dry Cre… Sonoma  
10   396 US      Rich in sp… Ancient Vi…     85    16 Califor… Califor… Califor…
# ℹ 2,704 more rows
# ℹ 5 more variables: taster_name <chr>, taster_twitter_handle <chr>,
#   title <chr>, variety <chr>, winery <chr>
…
